<svg xmlns="http://www.w3.org/2000/svg" viewBox="0 0 60.073 51.735">
  <defs>
    <style>
      .cls-1 {
        fill: #fff;
        stroke: #fff;
      }
    </style>
  </defs>
  <g id="noun_997226_cc" transform="translate(-12.262 -17.463)">
    <g id="Group_160" data-name="Group 160" transform="translate(12.791 17.981)">
      <path id="Path_377" data-name="Path 377" class="cls-1" d="M66.938,79.313a104.318,104.318,0,0,0-46.408,0,.869.869,0,0,0-.634.95.771.771,0,0,0,.792.634h.158a103.47,103.47,0,0,1,45.695,0,.8.8,0,0,0,.95-.634A.774.774,0,0,0,66.938,79.313Z" transform="translate(-14.267 -30.198)"/>
      <path id="Path_378" data-name="Path 378" class="cls-1" d="M20.55,19.58a104.767,104.767,0,0,0,23.2,2.613,104.767,104.767,0,0,0,23.2-2.613A.808.808,0,0,0,66.641,18a103.47,103.47,0,0,1-45.695,0,.8.8,0,0,0-.95.634A.774.774,0,0,0,20.55,19.58Z" transform="translate(-14.287 -17.981)"/>
      <path id="Path_379" data-name="Path 379" class="cls-1" d="M71.718,26.082a.867.867,0,0,0-.079-.871.918.918,0,0,0-.792-.317,128.666,128.666,0,0,1-57.1,0,.753.753,0,0,0-.792.317.85.85,0,0,0-.079.871c6.336,12.433,6.336,24.946,0,37.38a.867.867,0,0,0,.079.871.918.918,0,0,0,.792.317,128.666,128.666,0,0,1,57.1,0h.158a.72.72,0,0,0,.634-.317.85.85,0,0,0,.079-.871C65.3,51.029,65.3,38.516,71.718,26.082ZM42.258,59.819A133.412,133.412,0,0,0,14.936,62.67a40.089,40.089,0,0,0,0-35.8,129.329,129.329,0,0,0,54.565,0,40.089,40.089,0,0,0,0,35.8A132.084,132.084,0,0,0,42.258,59.819Z" transform="translate(-12.791 -19.415)"/>
      <path id="Path_380" data-name="Path 380" class="cls-1" d="M50.347,44.3a.978.978,0,0,0-.634-.317.72.72,0,0,0-.634.317l-4.672,5.544-6.256-7.523a.742.742,0,0,0-1.188,0L24.847,56.814a.786.786,0,0,0,1.188,1.03L37.6,44.064,49.08,57.844a.978.978,0,0,0,.634.317A.849.849,0,0,0,50.189,58a.77.77,0,0,0,.079-1.109l-4.752-5.7,4.2-5.068,9.9,11.721a.978.978,0,0,0,.634.317A.849.849,0,0,0,60.722,58a.77.77,0,0,0,.079-1.109Z" transform="translate(-15.257 -22.984)"/>
      <path id="Path_381" data-name="Path 381" class="cls-1" d="M69.38,37.7a3.881,3.881,0,1,0,3.881,3.881A3.887,3.887,0,0,0,69.38,37.7Zm0,6.177a2.3,2.3,0,1,1,2.3-2.3A2.3,2.3,0,0,1,69.38,43.877Z" transform="translate(-23.758 -22.084)"/>
    </g>
  </g>
</svg>
